%YAML 1.1
%TAG !u! tag:unity3d.com,2011:
--- !u!29 &1
OcclusionCullingSettings:
  m_ObjectHideFlags: 0
  serializedVersion: 2
  m_OcclusionBakeSettings:
    smallestOccluder: 5
    smallestHole: 0.25
    backfaceThreshold: 100
  m_SceneGUID: 00000000000000000000000000000000
  m_OcclusionCullingData: {fileID: 0}
--- !u!104 &2
RenderSettings:
  m_ObjectHideFlags: 0
  serializedVersion: 9
  m_Fog: 0
  m_FogColor: {r: 0.5, g: 0.5, b: 0.5, a: 1}
  m_FogMode: 3
  m_FogDensity: 0.01
  m_LinearFogStart: 0
  m_LinearFogEnd: 300
  m_AmbientSkyColor: {r: 0.212, g: 0.227, b: 0.259, a: 1}
  m_AmbientEquatorColor: {r: 0.114, g: 0.125, b: 0.133, a: 1}
  m_AmbientGroundColor: {r: 0.047, g: 0.043, b: 0.035, a: 1}
  m_AmbientIntensity: 1.7
  m_AmbientMode: 0
  m_SubtractiveShadowColor: {r: 0.42, g: 0.478, b: 0.627, a: 1}
  m_SkyboxMaterial: {fileID: 10304, guid: 0000000000000000f000000000000000, type: 0}
  m_HaloStrength: 0.5
  m_FlareStrength: 1
  m_FlareFadeSpeed: 3
  m_HaloTexture: {fileID: 0}
  m_SpotCookie: {fileID: 10001, guid: 0000000000000000e000000000000000, type: 0}
  m_DefaultReflectionMode: 0
  m_DefaultReflectionResolution: 128
  m_ReflectionBounces: 1
  m_ReflectionIntensity: 1
  m_CustomReflection: {fileID: 0}
  m_Sun: {fileID: 0}
  m_IndirectSpecularColor: {r: 0, g: 0, b: 0, a: 1}
  m_UseRadianceAmbientProbe: 0
--- !u!157 &3
LightmapSettings:
  m_ObjectHideFlags: 0
  serializedVersion: 12
  m_GIWorkflowMode: 0
  m_GISettings:
    serializedVersion: 2
    m_BounceScale: 1
    m_IndirectOutputScale: 1
    m_AlbedoBoost: 1
    m_EnvironmentLightingMode: 0
    m_EnableBakedLightmaps: 1
    m_EnableRealtimeLightmaps: 1
  m_LightmapEditorSettings:
    serializedVersion: 12
    m_Resolution: 2
    m_BakeResolution: 40
    m_AtlasSize: 1024
    m_AO: 0
    m_AOMaxDistance: 1
    m_CompAOExponent: 1
    m_CompAOExponentDirect: 0
    m_ExtractAmbientOcclusion: 0
    m_Padding: 2
    m_LightmapParameters: {fileID: 0}
    m_LightmapsBakeMode: 1
    m_TextureCompression: 1
    m_FinalGather: 0
    m_FinalGatherFiltering: 1
    m_FinalGatherRayCount: 256
    m_ReflectionCompression: 2
    m_MixedBakeMode: 1
    m_BakeBackend: 0
    m_PVRSampling: 1
    m_PVRDirectSampleCount: 32
    m_PVRSampleCount: 512
    m_PVRBounces: 2
    m_PVREnvironmentSampleCount: 512
    m_PVREnvironmentReferencePointCount: 2048
    m_PVRFilteringMode: 0
    m_PVRDenoiserTypeDirect: 0
    m_PVRDenoiserTypeIndirect: 0
    m_PVRDenoiserTypeAO: 0
    m_PVRFilterTypeDirect: 0
    m_PVRFilterTypeIndirect: 0
    m_PVRFilterTypeAO: 0
    m_PVREnvironmentMIS: 0
    m_PVRCulling: 1
    m_PVRFilteringGaussRadiusDirect: 1
    m_PVRFilteringGaussRadiusIndirect: 5
    m_PVRFilteringGaussRadiusAO: 2
    m_PVRFilteringAtrousPositionSigmaDirect: 0.5
    m_PVRFilteringAtrousPositionSigmaIndirect: 2
    m_PVRFilteringAtrousPositionSigmaAO: 1
    m_ExportTrainingData: 0
    m_TrainingDataDestination: TrainingData
    m_LightProbeSampleCountMultiplier: 4
  m_LightingDataAsset: {fileID: 112000001, guid: d3d54a24ff0484c4ba0ec78c59a5b78d, type: 2}
  m_LightingSettings: {fileID: 4890085278179872738, guid: 0b54b3530620c2742883240df35aa0e7, type: 2}
--- !u!196 &4
NavMeshSettings:
  serializedVersion: 2
  m_ObjectHideFlags: 0
  m_BuildSettings:
    serializedVersion: 2
    agentTypeID: 0
    agentRadius: 0.5
    agentHeight: 2
    agentSlope: 45
    agentClimb: 0.4
    ledgeDropHeight: 0
    maxJumpAcrossDistance: 0
    minRegionArea: 2
    manualCellSize: 0
    cellSize: 0.16666667
    manualTileSize: 0
    tileSize: 256
    accuratePlacement: 0
    maxJobWorkers: 0
    preserveTilesOutsideBounds: 0
    debug:
      m_Flags: 0
  m_NavMeshData: {fileID: 0}
--- !u!1 &143918598
GameObject:
  m_ObjectHideFlags: 0
  m_CorrespondingSourceObject: {fileID: 0}
  m_PrefabInstance: {fileID: 0}
  m_PrefabAsset: {fileID: 0}
  serializedVersion: 6
  m_Component:
  - component: {fileID: 143918603}
  - component: {fileID: 143918602}
  - component: {fileID: 143918600}
  - component: {fileID: 143918599}
  m_Layer: 0
  m_Name: Main Camera
  m_TagString: MainCamera
  m_Icon: {fileID: 0}
  m_NavMeshLayer: 0
  m_StaticEditorFlags: 0
  m_IsActive: 1
--- !u!81 &143918599
AudioListener:
  m_ObjectHideFlags: 0
  m_CorrespondingSourceObject: {fileID: 0}
  m_PrefabInstance: {fileID: 0}
  m_PrefabAsset: {fileID: 0}
  m_GameObject: {fileID: 143918598}
  m_Enabled: 1
--- !u!124 &143918600
Behaviour:
  m_ObjectHideFlags: 0
  m_CorrespondingSourceObject: {fileID: 0}
  m_PrefabInstance: {fileID: 0}
  m_PrefabAsset: {fileID: 0}
  m_GameObject: {fileID: 143918598}
  m_Enabled: 1
--- !u!20 &143918602
Camera:
  m_ObjectHideFlags: 0
  m_CorrespondingSourceObject: {fileID: 0}
  m_PrefabInstance: {fileID: 0}
  m_PrefabAsset: {fileID: 0}
  m_GameObject: {fileID: 143918598}
  m_Enabled: 1
  serializedVersion: 2
  m_ClearFlags: 2
  m_BackGroundColor: {r: 0.5019608, g: 0.53333336, b: 0.5686275, a: 0}
  m_projectionMatrixMode: 1
  m_GateFitMode: 2
  m_FOVAxisMode: 0
  m_SensorSize: {x: 36, y: 24}
  m_LensShift: {x: 0, y: 0}
  m_FocalLength: 50
  m_NormalizedViewPortRect:
    serializedVersion: 2
    x: 0
    y: 0
    width: 1
    height: 1
  near clip plane: 0.3
  far clip plane: 1000
  field of view: 60
  orthographic: 0
  orthographic size: 5
  m_Depth: -1
  m_CullingMask:
    serializedVersion: 2
    m_Bits: 4294967295
  m_RenderingPath: -1
  m_TargetTexture: {fileID: 0}
  m_TargetDisplay: 0
  m_TargetEye: 3
  m_HDR: 0
  m_AllowMSAA: 1
  m_AllowDynamicResolution: 0
  m_ForceIntoRT: 0
  m_OcclusionCulling: 1
  m_StereoConvergence: 10
  m_StereoSeparation: 0.022
--- !u!4 &143918603
Transform:
  m_ObjectHideFlags: 0
  m_CorrespondingSourceObject: {fileID: 0}
  m_PrefabInstance: {fileID: 0}
  m_PrefabAsset: {fileID: 0}
  m_GameObject: {fileID: 143918598}
  m_LocalRotation: {x: 0.051261637, y: 0.20037135, z: -0.01906193, w: 0.9781924}
  m_LocalPosition: {x: 0.39, y: 1.56, z: -2.96}
  m_LocalScale: {x: 1, y: 1, z: 1}
  m_Children: []
  m_Father: {fileID: 0}
  m_RootOrder: 0
  m_LocalEulerAnglesHint: {x: 8.3810005, y: 0, z: 0}
--- !u!1001 &174918507
PrefabInstance:
  m_ObjectHideFlags: 0
  serializedVersion: 2
  m_Modification:
    m_TransformParent: {fileID: 2139663128}
    m_Modifications:
    - target: {fileID: 4000011650569256, guid: 2cf6690298568294cb6b655c0a3aeb87, type: 3}
      propertyPath: m_RootOrder
      value: 4
      objectReference: {fileID: 0}
    - target: {fileID: 4000011650569256, guid: 2cf6690298568294cb6b655c0a3aeb87, type: 3}
      propertyPath: m_LocalPosition.x
      value: 0.51
      objectReference: {fileID: 0}
    - target: {fileID: 4000011650569256, guid: 2cf6690298568294cb6b655c0a3aeb87, type: 3}
      propertyPath: m_LocalPosition.y
      value: 0
      objectReference: {fileID: 0}
    - target: {fileID: 4000011650569256, guid: 2cf6690298568294cb6b655c0a3aeb87, type: 3}
      propertyPath: m_LocalPosition.z
      value: 0
      objectReference: {fileID: 0}
    - target: {fileID: 4000011650569256, guid: 2cf6690298568294cb6b655c0a3aeb87, type: 3}
      propertyPath: m_LocalRotation.w
      value: 1
      objectReference: {fileID: 0}
    - target: {fileID: 4000011650569256, guid: 2cf6690298568294cb6b655c0a3aeb87, type: 3}
      propertyPath: m_LocalRotation.x
      value: -0
      objectReference: {fileID: 0}
    - target: {fileID: 4000011650569256, guid: 2cf6690298568294cb6b655c0a3aeb87, type: 3}
      propertyPath: m_LocalRotation.y
      value: -0
      objectReference: {fileID: 0}
    - target: {fileID: 4000011650569256, guid: 2cf6690298568294cb6b655c0a3aeb87, type: 3}
      propertyPath: m_LocalRotation.z
      value: -0
      objectReference: {fileID: 0}
    m_RemovedComponents: []
  m_SourcePrefab: {fileID: 100100000, guid: 2cf6690298568294cb6b655c0a3aeb87, type: 3}
--- !u!1001 &283547814
PrefabInstance:
  m_ObjectHideFlags: 0
  serializedVersion: 2
  m_Modification:
    m_TransformParent: {fileID: 0}
    m_Modifications:
    - target: {fileID: 4000010043812026, guid: efebddd0b5766bd499be8b63f581de68, type: 3}
      propertyPath: m_RootOrder
      value: 2
      objectReference: {fileID: 0}
    - target: {fileID: 4000010043812026, guid: efebddd0b5766bd499be8b63f581de68, type: 3}
      propertyPath: m_LocalPosition.x
      value: 3.6240087
      objectReference: {fileID: 0}
    - target: {fileID: 4000010043812026, guid: efebddd0b5766bd499be8b63f581de68, type: 3}
      propertyPath: m_LocalPosition.y
      value: 2.2860327e-17
      objectReference: {fileID: 0}
    - target: {fileID: 4000010043812026, guid: efebddd0b5766bd499be8b63f581de68, type: 3}
      propertyPath: m_LocalPosition.z
      value: -10.295376
      objectReference: {fileID: 0}
    - target: {fileID: 4000010043812026, guid: efebddd0b5766bd499be8b63f581de68, type: 3}
      propertyPath: m_LocalRotation.w
      value: 0.9708458
      objectReference: {fileID: 0}
    - target: {fileID: 4000010043812026, guid: efebddd0b5766bd499be8b63f581de68, type: 3}
      propertyPath: m_LocalRotation.x
      value: -0
      objectReference: {fileID: 0}
    - target: {fileID: 4000010043812026, guid: efebddd0b5766bd499be8b63f581de68, type: 3}
      propertyPath: m_LocalRotation.y
      value: 0.23970485
      objectReference: {fileID: 0}
    - target: {fileID: 4000010043812026, guid: efebddd0b5766bd499be8b63f581de68, type: 3}
      propertyPath: m_LocalRotation.z
      value: -0
      objectReference: {fileID: 0}
    m_RemovedComponents: []
  m_SourcePrefab: {fileID: 100100000, guid: efebddd0b5766bd499be8b63f581de68, type: 3}
--- !u!1 &496813420
GameObject:
  m_ObjectHideFlags: 0
  m_CorrespondingSourceObject: {fileID: 0}
  m_PrefabInstance: {fileID: 0}
  m_PrefabAsset: {fileID: 0}
  serializedVersion: 6
  m_Component:
  - component: {fileID: 496813424}
  - component: {fileID: 496813423}
  - component: {fileID: 496813422}
  - component: {fileID: 496813421}
  m_Layer: 0
  m_Name: Plane
  m_TagString: Untagged
  m_Icon: {fileID: 0}
  m_NavMeshLayer: 0
  m_StaticEditorFlags: 0
  m_IsActive: 1
--- !u!23 &496813421
MeshRenderer:
  m_ObjectHideFlags: 0
  m_CorrespondingSourceObject: {fileID: 0}
  m_PrefabInstance: {fileID: 0}
  m_PrefabAsset: {fileID: 0}
  m_GameObject: {fileID: 496813420}
  m_Enabled: 1
  m_CastShadows: 1
  m_ReceiveShadows: 1
  m_DynamicOccludee: 1
  m_StaticShadowCaster: 0
  m_MotionVectors: 1
  m_LightProbeUsage: 1
  m_ReflectionProbeUsage: 1
  m_RayTracingMode: 2
  m_RayTraceProcedural: 0
  m_RenderingLayerMask: 1
  m_RendererPriority: 0
  m_Materials:
  - {fileID: 2100000, guid: 51e0c22d8fb917b459595119b8b7e21b, type: 2}
  m_StaticBatchInfo:
    firstSubMesh: 0
    subMeshCount: 0
  m_StaticBatchRoot: {fileID: 0}
  m_ProbeAnchor: {fileID: 0}
  m_LightProbeVolumeOverride: {fileID: 0}
  m_ScaleInLightmap: 1
  m_ReceiveGI: 1
  m_PreserveUVs: 1
  m_IgnoreNormalsForChartDetection: 0
  m_ImportantGI: 0
  m_StitchLightmapSeams: 1
  m_SelectedEditorRenderState: 3
  m_MinimumChartSize: 4
  m_AutoUVMaxDistance: 0.5
  m_AutoUVMaxAngle: 89
  m_LightmapParameters: {fileID: 0}
  m_SortingLayerID: 0
  m_SortingLayer: 0
  m_SortingOrder: 0
  m_AdditionalVertexStreams: {fileID: 0}
--- !u!64 &496813422
MeshCollider:
  m_ObjectHideFlags: 0
  m_CorrespondingSourceObject: {fileID: 0}
  m_PrefabInstance: {fileID: 0}
  m_PrefabAsset: {fileID: 0}
  m_GameObject: {fileID: 496813420}
  m_Material: {fileID: 0}
  m_IsTrigger: 0
  m_Enabled: 1
  serializedVersion: 4
  m_Convex: 0
  m_CookingOptions: 30
  m_Mesh: {fileID: 10209, guid: 0000000000000000e000000000000000, type: 0}
--- !u!33 &496813423
MeshFilter:
  m_ObjectHideFlags: 0
  m_CorrespondingSourceObject: {fileID: 0}
  m_PrefabInstance: {fileID: 0}
  m_PrefabAsset: {fileID: 0}
  m_GameObject: {fileID: 496813420}
  m_Mesh: {fileID: 10209, guid: 0000000000000000e000000000000000, type: 0}
--- !u!4 &496813424
Transform:
  m_ObjectHideFlags: 0
  m_CorrespondingSourceObject: {fileID: 0}
  m_PrefabInstance: {fileID: 0}
  m_PrefabAsset: {fileID: 0}
  m_GameObject: {fileID: 496813420}
  m_LocalRotation: {x: -0, y: -0, z: -0, w: 1}
  m_LocalPosition: {x: 0, y: 0, z: 0}
  m_LocalScale: {x: 10, y: 1, z: 10}
  m_Children: []
  m_Father: {fileID: 2139663128}
  m_RootOrder: 8
  m_LocalEulerAnglesHint: {x: 0, y: 0, z: 0}
--- !u!1 &527001372
GameObject:
  m_ObjectHideFlags: 0
  m_CorrespondingSourceObject: {fileID: 0}
  m_PrefabInstance: {fileID: 0}
  m_PrefabAsset: {fileID: 0}
  serializedVersion: 6
  m_Component:
  - component: {fileID: 527001374}
  - component: {fileID: 527001373}
  m_Layer: 0
  m_Name: Directional Light
  m_TagString: Untagged
  m_Icon: {fileID: 0}
  m_NavMeshLayer: 0
  m_StaticEditorFlags: 0
  m_IsActive: 1
--- !u!108 &527001373
Light:
  m_ObjectHideFlags: 0
  m_CorrespondingSourceObject: {fileID: 0}
  m_PrefabInstance: {fileID: 0}
  m_PrefabAsset: {fileID: 0}
  m_GameObject: {fileID: 527001372}
  m_Enabled: 1
  serializedVersion: 10
  m_Type: 1
  m_Shape: 0
  m_Color: {r: 1, g: 0.95686275, b: 0.8392157, a: 1}
  m_Intensity: 1
  m_Range: 10
  m_SpotAngle: 30
  m_InnerSpotAngle: 21.80208
  m_CookieSize: 10
  m_Shadows:
    m_Type: 2
    m_Resolution: -1
    m_CustomResolution: -1
    m_Strength: 1
    m_Bias: 0
    m_NormalBias: 1.08
    m_NearPlane: 0.4
    m_CullingMatrixOverride:
      e00: 1
      e01: 0
      e02: 0
      e03: 0
      e10: 0
      e11: 1
      e12: 0
      e13: 0
      e20: 0
      e21: 0
      e22: 1
      e23: 0
      e30: 0
      e31: 0
      e32: 0
      e33: 1
    m_UseCullingMatrixOverride: 0
  m_Cookie: {fileID: 0}
  m_DrawHalo: 0
  m_Flare: {fileID: 0}
  m_RenderMode: 0
  m_CullingMask:
    serializedVersion: 2
    m_Bits: 4294967295
  m_RenderingLayerMask: 1
  m_Lightmapping: 4
  m_LightShadowCasterMode: 0
  m_AreaSize: {x: 1, y: 1}
  m_BounceIntensity: 1.5
  m_ColorTemperature: 6570
  m_UseColorTemperature: 0
  m_BoundingSphereOverride: {x: 0, y: 0, z: 0, w: 0}
  m_UseBoundingSphereOverride: 0
  m_UseViewFrustumForShadowCasterCull: 1
  m_ShadowRadius: 0
  m_ShadowAngle: 0
--- !u!4 &527001374
Transform:
  m_ObjectHideFlags: 0
  m_CorrespondingSourceObject: {fileID: 0}
  m_PrefabInstance: {fileID: 0}
  m_PrefabAsset: {fileID: 0}
  m_GameObject: {fileID: 527001372}
  m_LocalRotation: {x: 0.40821788, y: -0.23456968, z: 0.10938163, w: 0.8754261}
  m_LocalPosition: {x: 0, y: 6.5, z: 0}
  m_LocalScale: {x: 1, y: 1, z: 1}
  m_Children: []
  m_Father: {fileID: 0}
  m_RootOrder: 6
  m_LocalEulerAnglesHint: {x: 50, y: -30, z: 0}
--- !u!4 &588781110 stripped
Transform:
  m_CorrespondingSourceObject: {fileID: 4000013555364002, guid: 5142a683d65bbf84abea6f07db9099c7, type: 3}
  m_PrefabInstance: {fileID: 680963936}
  m_PrefabAsset: {fileID: 0}
--- !u!1001 &680963936
PrefabInstance:
  m_ObjectHideFlags: 0
  serializedVersion: 2
  m_Modification:
    m_TransformParent: {fileID: 2139663128}
    m_Modifications:
    - target: {fileID: 1000011365394840, guid: 5142a683d65bbf84abea6f07db9099c7, type: 3}
      propertyPath: m_Name
      value: Coin (2)
      objectReference: {fileID: 0}
    - target: {fileID: 4000010444600384, guid: 5142a683d65bbf84abea6f07db9099c7, type: 3}
      propertyPath: m_LocalPosition.y
      value: 0.94
      objectReference: {fileID: 0}
    - target: {fileID: 4000013555364002, guid: 5142a683d65bbf84abea6f07db9099c7, type: 3}
      propertyPath: m_RootOrder
      value: 7
      objectReference: {fileID: 0}
    - target: {fileID: 4000013555364002, guid: 5142a683d65bbf84abea6f07db9099c7, type: 3}
      propertyPath: m_LocalPosition.x
      value: 2.657
      objectReference: {fileID: 0}
    - target: {fileID: 4000013555364002, guid: 5142a683d65bbf84abea6f07db9099c7, type: 3}
      propertyPath: m_LocalPosition.y
      value: 0
      objectReference: {fileID: 0}
    - target: {fileID: 4000013555364002, guid: 5142a683d65bbf84abea6f07db9099c7, type: 3}
      propertyPath: m_LocalPosition.z
      value: 0.53
      objectReference: {fileID: 0}
    - target: {fileID: 4000013555364002, guid: 5142a683d65bbf84abea6f07db9099c7, type: 3}
      propertyPath: m_LocalRotation.w
      value: 1
      objectReference: {fileID: 0}
    - target: {fileID: 4000013555364002, guid: 5142a683d65bbf84abea6f07db9099c7, type: 3}
      propertyPath: m_LocalRotation.x
      value: -0
      objectReference: {fileID: 0}
    - target: {fileID: 4000013555364002, guid: 5142a683d65bbf84abea6f07db9099c7, type: 3}
      propertyPath: m_LocalRotation.y
      value: -0
      objectReference: {fileID: 0}
    - target: {fileID: 4000013555364002, guid: 5142a683d65bbf84abea6f07db9099c7, type: 3}
      propertyPath: m_LocalRotation.z
      value: -0
      objectReference: {fileID: 0}
    m_RemovedComponents: []
  m_SourcePrefab: {fileID: 100100000, guid: 5142a683d65bbf84abea6f07db9099c7, type: 3}
--- !u!4 &734735955 stripped
Transform:
  m_CorrespondingSourceObject: {fileID: 4000010043812026, guid: efebddd0b5766bd499be8b63f581de68, type: 3}
  m_PrefabInstance: {fileID: 1767818571}
  m_PrefabAsset: {fileID: 0}
--- !u!1001 &792267494
PrefabInstance:
  m_ObjectHideFlags: 0
  serializedVersion: 2
  m_Modification:
    m_TransformParent: {fileID: 0}
    m_Modifications:
    - target: {fileID: 4000013555364002, guid: 5142a683d65bbf84abea6f07db9099c7, type: 3}
      propertyPath: m_RootOrder
      value: 1
      objectReference: {fileID: 0}
    - target: {fileID: 4000013555364002, guid: 5142a683d65bbf84abea6f07db9099c7, type: 3}
      propertyPath: m_LocalPosition.x
      value: 2.9584088
      objectReference: {fileID: 0}
    - target: {fileID: 4000013555364002, guid: 5142a683d65bbf84abea6f07db9099c7, type: 3}
      propertyPath: m_LocalPosition.y
      value: 1.6556932e-17
      objectReference: {fileID: 0}
    - target: {fileID: 4000013555364002, guid: 5142a683d65bbf84abea6f07db9099c7, type: 3}
      propertyPath: m_LocalPosition.z
      value: -7.456579
      objectReference: {fileID: 0}
    - target: {fileID: 4000013555364002, guid: 5142a683d65bbf84abea6f07db9099c7, type: 3}
      propertyPath: m_LocalRotation.w
      value: 0.8680793
      objectReference: {fileID: 0}
    - target: {fileID: 4000013555364002, guid: 5142a683d65bbf84abea6f07db9099c7, type: 3}
      propertyPath: m_LocalRotation.x
      value: -0
      objectReference: {fileID: 0}
    - target: {fileID: 4000013555364002, guid: 5142a683d65bbf84abea6f07db9099c7, type: 3}
      propertyPath: m_LocalRotation.y
      value: 0.49642566
      objectReference: {fileID: 0}
    - target: {fileID: 4000013555364002, guid: 5142a683d65bbf84abea6f07db9099c7, type: 3}
      propertyPath: m_LocalRotation.z
      value: -0
      objectReference: {fileID: 0}
    m_RemovedComponents: []
  m_SourcePrefab: {fileID: 100100000, guid: 5142a683d65bbf84abea6f07db9099c7, type: 3}
--- !u!1001 &794686494
PrefabInstance:
  m_ObjectHideFlags: 0
  serializedVersion: 2
  m_Modification:
    m_TransformParent: {fileID: 0}
    m_Modifications:
    - target: {fileID: 4000010690109084, guid: 7cafb89b5a0f61f479d0a748962abbbc, type: 3}
      propertyPath: m_RootOrder
      value: 4
      objectReference: {fileID: 0}
    - target: {fileID: 4000010690109084, guid: 7cafb89b5a0f61f479d0a748962abbbc, type: 3}
      propertyPath: m_LocalPosition.x
      value: 3.498352
      objectReference: {fileID: 0}
    - target: {fileID: 4000010690109084, guid: 7cafb89b5a0f61f479d0a748962abbbc, type: 3}
      propertyPath: m_LocalPosition.y
      value: 1.792044e-17
      objectReference: {fileID: 0}
    - target: {fileID: 4000010690109084, guid: 7cafb89b5a0f61f479d0a748962abbbc, type: 3}
      propertyPath: m_LocalPosition.z
      value: -8.070649
      objectReference: {fileID: 0}
    - target: {fileID: 4000010690109084, guid: 7cafb89b5a0f61f479d0a748962abbbc, type: 3}
      propertyPath: m_LocalRotation.w
      value: 1
      objectReference: {fileID: 0}
    - target: {fileID: 4000010690109084, guid: 7cafb89b5a0f61f479d0a748962abbbc, type: 3}
      propertyPath: m_LocalRotation.x
      value: -0
      objectReference: {fileID: 0}
    - target: {fileID: 4000010690109084, guid: 7cafb89b5a0f61f479d0a748962abbbc, type: 3}
      propertyPath: m_LocalRotation.y
      value: -0
      objectReference: {fileID: 0}
    - target: {fileID: 4000010690109084, guid: 7cafb89b5a0f61f479d0a748962abbbc, type: 3}
      propertyPath: m_LocalRotation.z
      value: -0
      objectReference: {fileID: 0}
    m_RemovedComponents: []
  m_SourcePrefab: {fileID: 100100000, guid: 7cafb89b5a0f61f479d0a748962abbbc, type: 3}
--- !u!1001 &880991312
PrefabInstance:
  m_ObjectHideFlags: 0
  serializedVersion: 2
  m_Modification:
    m_TransformParent: {fileID: 2139663128}
    m_Modifications:
    - target: {fileID: 4000013828724138, guid: 11e31a2ebb4e6e246bcf8c0ba034a031, type: 3}
      propertyPath: m_RootOrder
      value: 2
      objectReference: {fileID: 0}
    - target: {fileID: 4000013828724138, guid: 11e31a2ebb4e6e246bcf8c0ba034a031, type: 3}
      propertyPath: m_LocalPosition.x
      value: 1.48
      objectReference: {fileID: 0}
    - target: {fileID: 4000013828724138, guid: 11e31a2ebb4e6e246bcf8c0ba034a031, type: 3}
      propertyPath: m_LocalPosition.y
      value: 0
      objectReference: {fileID: 0}
    - target: {fileID: 4000013828724138, guid: 11e31a2ebb4e6e246bcf8c0ba034a031, type: 3}
      propertyPath: m_LocalPosition.z
      value: 0.08
      objectReference: {fileID: 0}
    - target: {fileID: 4000013828724138, guid: 11e31a2ebb4e6e246bcf8c0ba034a031, type: 3}
      propertyPath: m_LocalRotation.w
      value: 1
      objectReference: {fileID: 0}
    - target: {fileID: 4000013828724138, guid: 11e31a2ebb4e6e246bcf8c0ba034a031, type: 3}
      propertyPath: m_LocalRotation.x
      value: -0
      objectReference: {fileID: 0}
    - target: {fileID: 4000013828724138, guid: 11e31a2ebb4e6e246bcf8c0ba034a031, type: 3}
      propertyPath: m_LocalRotation.y
      value: -0
      objectReference: {fileID: 0}
    - target: {fileID: 4000013828724138, guid: 11e31a2ebb4e6e246bcf8c0ba034a031, type: 3}
      propertyPath: m_LocalRotation.z
      value: -0
      objectReference: {fileID: 0}
    m_RemovedComponents: []
  m_SourcePrefab: {fileID: 100100000, guid: 11e31a2ebb4e6e246bcf8c0ba034a031, type: 3}
--- !u!1001 &929108012
PrefabInstance:
  m_ObjectHideFlags: 0
  serializedVersion: 2
  m_Modification:
    m_TransformParent: {fileID: 0}
    m_Modifications:
    - target: {fileID: 4000013828724138, guid: 11e31a2ebb4e6e246bcf8c0ba034a031, type: 3}
      propertyPath: m_RootOrder
      value: 5
      objectReference: {fileID: 0}
    - target: {fileID: 4000013828724138, guid: 11e31a2ebb4e6e246bcf8c0ba034a031, type: 3}
      propertyPath: m_LocalPosition.x
      value: 3.6575584
      objectReference: {fileID: 0}
    - target: {fileID: 4000013828724138, guid: 11e31a2ebb4e6e246bcf8c0ba034a031, type: 3}
      propertyPath: m_LocalPosition.y
      value: 1.5181191e-17
      objectReference: {fileID: 0}
    - target: {fileID: 4000013828724138, guid: 11e31a2ebb4e6e246bcf8c0ba034a031, type: 3}
      propertyPath: m_LocalPosition.z
      value: -6.837001
      objectReference: {fileID: 0}
    - target: {fileID: 4000013828724138, guid: 11e31a2ebb4e6e246bcf8c0ba034a031, type: 3}
      propertyPath: m_LocalRotation.w
      value: 1
      objectReference: {fileID: 0}
    - target: {fileID: 4000013828724138, guid: 11e31a2ebb4e6e246bcf8c0ba034a031, type: 3}
      propertyPath: m_LocalRotation.x
      value: -0
      objectReference: {fileID: 0}
    - target: {fileID: 4000013828724138, guid: 11e31a2ebb4e6e246bcf8c0ba034a031, type: 3}
      propertyPath: m_LocalRotation.y
      value: -0
      objectReference: {fileID: 0}
    - target: {fileID: 4000013828724138, guid: 11e31a2ebb4e6e246bcf8c0ba034a031, type: 3}
      propertyPath: m_LocalRotation.z
      value: -0
      objectReference: {fileID: 0}
    m_RemovedComponents: []
  m_SourcePrefab: {fileID: 100100000, guid: 11e31a2ebb4e6e246bcf8c0ba034a031, type: 3}
--- !u!1001 &947468559
PrefabInstance:
  m_ObjectHideFlags: 0
  serializedVersion: 2
  m_Modification:
    m_TransformParent: {fileID: 2139663128}
    m_Modifications:
    - target: {fileID: 1000011365394840, guid: 5142a683d65bbf84abea6f07db9099c7, type: 3}
      propertyPath: m_Name
      value: Coin (1)
      objectReference: {fileID: 0}
    - target: {fileID: 4000010444600384, guid: 5142a683d65bbf84abea6f07db9099c7, type: 3}
      propertyPath: m_LocalPosition.y
      value: 0.94
      objectReference: {fileID: 0}
    - target: {fileID: 4000013555364002, guid: 5142a683d65bbf84abea6f07db9099c7, type: 3}
      propertyPath: m_RootOrder
      value: 6
      objectReference: {fileID: 0}
    - target: {fileID: 4000013555364002, guid: 5142a683d65bbf84abea6f07db9099c7, type: 3}
      propertyPath: m_LocalScale.x
      value: 1
      objectReference: {fileID: 0}
    - target: {fileID: 4000013555364002, guid: 5142a683d65bbf84abea6f07db9099c7, type: 3}
      propertyPath: m_LocalScale.z
      value: 1
      objectReference: {fileID: 0}
    - target: {fileID: 4000013555364002, guid: 5142a683d65bbf84abea6f07db9099c7, type: 3}
      propertyPath: m_LocalPosition.x
      value: 2.767
      objectReference: {fileID: 0}
    - target: {fileID: 4000013555364002, guid: 5142a683d65bbf84abea6f07db9099c7, type: 3}
      propertyPath: m_LocalPosition.y
      value: 0
      objectReference: {fileID: 0}
    - target: {fileID: 4000013555364002, guid: 5142a683d65bbf84abea6f07db9099c7, type: 3}
      propertyPath: m_LocalPosition.z
      value: 0
      objectReference: {fileID: 0}
    - target: {fileID: 4000013555364002, guid: 5142a683d65bbf84abea6f07db9099c7, type: 3}
      propertyPath: m_LocalRotation.w
      value: 0.7117932
      objectReference: {fileID: 0}
    - target: {fileID: 4000013555364002, guid: 5142a683d65bbf84abea6f07db9099c7, type: 3}
      propertyPath: m_LocalRotation.x
      value: -0
      objectReference: {fileID: 0}
    - target: {fileID: 4000013555364002, guid: 5142a683d65bbf84abea6f07db9099c7, type: 3}
      propertyPath: m_LocalRotation.y
      value: -0.7023892
      objectReference: {fileID: 0}
    - target: {fileID: 4000013555364002, guid: 5142a683d65bbf84abea6f07db9099c7, type: 3}
      propertyPath: m_LocalRotation.z
      value: -0
      objectReference: {fileID: 0}
    - target: {fileID: 4000013555364002, guid: 5142a683d65bbf84abea6f07db9099c7, type: 3}
      propertyPath: m_LocalEulerAnglesHint.y
      value: -89.26
      objectReference: {fileID: 0}
    m_RemovedComponents: []
  m_SourcePrefab: {fileID: 100100000, guid: 5142a683d65bbf84abea6f07db9099c7, type: 3}
--- !u!4 &967171275 stripped
Transform:
  m_CorrespondingSourceObject: {fileID: 4000013555364002, guid: 5142a683d65bbf84abea6f07db9099c7, type: 3}
  m_PrefabInstance: {fileID: 947468559}
  m_PrefabAsset: {fileID: 0}
--- !u!4 &1080594330 stripped
Transform:
  m_CorrespondingSourceObject: {fileID: 4000010690109084, guid: 7cafb89b5a0f61f479d0a748962abbbc, type: 3}
  m_PrefabInstance: {fileID: 1582954526}
  m_PrefabAsset: {fileID: 0}
--- !u!1001 &1138050024
PrefabInstance:
  m_ObjectHideFlags: 0
  serializedVersion: 2
  m_Modification:
    m_TransformParent: {fileID: 2139663128}
    m_Modifications:
    - target: {fileID: 1000011714421220, guid: efebddd0b5766bd499be8b63f581de68, type: 3}
      propertyPath: m_IsActive
      value: 1
      objectReference: {fileID: 0}
    - target: {fileID: 1000013620582324, guid: efebddd0b5766bd499be8b63f581de68, type: 3}
      propertyPath: m_IsActive
      value: 0
      objectReference: {fileID: 0}
    - target: {fileID: 1000014038691284, guid: efebddd0b5766bd499be8b63f581de68, type: 3}
      propertyPath: m_Name
      value: Box_Crash
      objectReference: {fileID: 0}
    - target: {fileID: 1000014204504060, guid: efebddd0b5766bd499be8b63f581de68, type: 3}
      propertyPath: m_IsActive
      value: 0
      objectReference: {fileID: 0}
    - target: {fileID: 4000010043812026, guid: efebddd0b5766bd499be8b63f581de68, type: 3}
      propertyPath: m_RootOrder
      value: 0
      objectReference: {fileID: 0}
    - target: {fileID: 4000010043812026, guid: efebddd0b5766bd499be8b63f581de68, type: 3}
      propertyPath: m_LocalScale.x
      value: 1
      objectReference: {fileID: 0}
    - target: {fileID: 4000010043812026, guid: efebddd0b5766bd499be8b63f581de68, type: 3}
      propertyPath: m_LocalScale.z
      value: 1
      objectReference: {fileID: 0}
    - target: {fileID: 4000010043812026, guid: efebddd0b5766bd499be8b63f581de68, type: 3}
      propertyPath: m_LocalPosition.x
      value: 7.198
      objectReference: {fileID: 0}
    - target: {fileID: 4000010043812026, guid: efebddd0b5766bd499be8b63f581de68, type: 3}
      propertyPath: m_LocalPosition.y
      value: 0
      objectReference: {fileID: 0}
    - target: {fileID: 4000010043812026, guid: efebddd0b5766bd499be8b63f581de68, type: 3}
      propertyPath: m_LocalPosition.z
      value: 0.814442
      objectReference: {fileID: 0}
    - target: {fileID: 4000010043812026, guid: efebddd0b5766bd499be8b63f581de68, type: 3}
      propertyPath: m_LocalRotation.w
      value: 0.9997685
      objectReference: {fileID: 0}
    - target: {fileID: 4000010043812026, guid: efebddd0b5766bd499be8b63f581de68, type: 3}
      propertyPath: m_LocalRotation.x
      value: -0
      objectReference: {fileID: 0}
    - target: {fileID: 4000010043812026, guid: efebddd0b5766bd499be8b63f581de68, type: 3}
      propertyPath: m_LocalRotation.y
      value: -0.021516588
      objectReference: {fileID: 0}
    - target: {fileID: 4000010043812026, guid: efebddd0b5766bd499be8b63f581de68, type: 3}
      propertyPath: m_LocalRotation.z
      value: -0
      objectReference: {fileID: 0}
    - target: {fileID: 4000010043812026, guid: efebddd0b5766bd499be8b63f581de68, type: 3}
      propertyPath: m_LocalEulerAnglesHint.y
      value: -2.394
      objectReference: {fileID: 0}
    m_RemovedComponents: []
  m_SourcePrefab: {fileID: 100100000, guid: efebddd0b5766bd499be8b63f581de68, type: 3}
--- !u!4 &1374802510 stripped
Transform:
  m_CorrespondingSourceObject: {fileID: 4000010043812026, guid: efebddd0b5766bd499be8b63f581de68, type: 3}
  m_PrefabInstance: {fileID: 1138050024}
  m_PrefabAsset: {fileID: 0}
--- !u!4 &1449147176 stripped
Transform:
  m_CorrespondingSourceObject: {fileID: 4000013555364002, guid: 5142a683d65bbf84abea6f07db9099c7, type: 3}
  m_PrefabInstance: {fileID: 1570181284}
  m_PrefabAsset: {fileID: 0}
--- !u!4 &1451734602 stripped
Transform:
  m_CorrespondingSourceObject: {fileID: 4000011650569256, guid: 2cf6690298568294cb6b655c0a3aeb87, type: 3}
  m_PrefabInstance: {fileID: 174918507}
  m_PrefabAsset: {fileID: 0}
--- !u!1001 &1570181284
PrefabInstance:
  m_ObjectHideFlags: 0
  serializedVersion: 2
  m_Modification:
    m_TransformParent: {fileID: 2139663128}
    m_Modifications:
    - target: {fileID: 4000013555364002, guid: 5142a683d65bbf84abea6f07db9099c7, type: 3}
      propertyPath: m_RootOrder
      value: 5
      objectReference: {fileID: 0}
    - target: {fileID: 4000013555364002, guid: 5142a683d65bbf84abea6f07db9099c7, type: 3}
      propertyPath: m_LocalScale.x
      value: 1
      objectReference: {fileID: 0}
    - target: {fileID: 4000013555364002, guid: 5142a683d65bbf84abea6f07db9099c7, type: 3}
      propertyPath: m_LocalScale.z
      value: 1
      objectReference: {fileID: 0}
    - target: {fileID: 4000013555364002, guid: 5142a683d65bbf84abea6f07db9099c7, type: 3}
      propertyPath: m_LocalPosition.x
      value: 2.161
      objectReference: {fileID: 0}
    - target: {fileID: 4000013555364002, guid: 5142a683d65bbf84abea6f07db9099c7, type: 3}
      propertyPath: m_LocalPosition.y
      value: 0
      objectReference: {fileID: 0}
    - target: {fileID: 4000013555364002, guid: 5142a683d65bbf84abea6f07db9099c7, type: 3}
      propertyPath: m_LocalPosition.z
      value: 0
      objectReference: {fileID: 0}
    - target: {fileID: 4000013555364002, guid: 5142a683d65bbf84abea6f07db9099c7, type: 3}
      propertyPath: m_LocalRotation.w
      value: 0.8680793
      objectReference: {fileID: 0}
    - target: {fileID: 4000013555364002, guid: 5142a683d65bbf84abea6f07db9099c7, type: 3}
      propertyPath: m_LocalRotation.x
      value: -0
      objectReference: {fileID: 0}
    - target: {fileID: 4000013555364002, guid: 5142a683d65bbf84abea6f07db9099c7, type: 3}
      propertyPath: m_LocalRotation.y
      value: 0.49642566
      objectReference: {fileID: 0}
    - target: {fileID: 4000013555364002, guid: 5142a683d65bbf84abea6f07db9099c7, type: 3}
      propertyPath: m_LocalRotation.z
      value: -0
      objectReference: {fileID: 0}
    m_RemovedComponents: []
  m_SourcePrefab: {fileID: 100100000, guid: 5142a683d65bbf84abea6f07db9099c7, type: 3}
--- !u!1001 &1582954526
PrefabInstance:
  m_ObjectHideFlags: 0
  serializedVersion: 2
  m_Modification:
    m_TransformParent: {fileID: 2139663128}
    m_Modifications:
    - target: {fileID: 4000010690109084, guid: 7cafb89b5a0f61f479d0a748962abbbc, type: 3}
      propertyPath: m_RootOrder
      value: 3
      objectReference: {fileID: 0}
    - target: {fileID: 4000010690109084, guid: 7cafb89b5a0f61f479d0a748962abbbc, type: 3}
      propertyPath: m_LocalPosition.x
      value: -0.37
      objectReference: {fileID: 0}
    - target: {fileID: 4000010690109084, guid: 7cafb89b5a0f61f479d0a748962abbbc, type: 3}
      propertyPath: m_LocalPosition.y
      value: 0
      objectReference: {fileID: 0}
    - target: {fileID: 4000010690109084, guid: 7cafb89b5a0f61f479d0a748962abbbc, type: 3}
      propertyPath: m_LocalPosition.z
      value: 0
      objectReference: {fileID: 0}
    - target: {fileID: 4000010690109084, guid: 7cafb89b5a0f61f479d0a748962abbbc, type: 3}
      propertyPath: m_LocalRotation.w
      value: 1
      objectReference: {fileID: 0}
    - target: {fileID: 4000010690109084, guid: 7cafb89b5a0f61f479d0a748962abbbc, type: 3}
      propertyPath: m_LocalRotation.x
      value: -0
      objectReference: {fileID: 0}
    - target: {fileID: 4000010690109084, guid: 7cafb89b5a0f61f479d0a748962abbbc, type: 3}
      propertyPath: m_LocalRotation.y
      value: -0
      objectReference: {fileID: 0}
    - target: {fileID: 4000010690109084, guid: 7cafb89b5a0f61f479d0a748962abbbc, type: 3}
      propertyPath: m_LocalRotation.z
      value: -0
      objectReference: {fileID: 0}
    m_RemovedComponents: []
  m_SourcePrefab: {fileID: 100100000, guid: 7cafb89b5a0f61f479d0a748962abbbc, type: 3}
--- !u!1001 &1731126197
PrefabInstance:
  m_ObjectHideFlags: 0
  serializedVersion: 2
  m_Modification:
    m_TransformParent: {fileID: 0}
    m_Modifications:
    - target: {fileID: 4000011650569256, guid: 2cf6690298568294cb6b655c0a3aeb87, type: 3}
      propertyPath: m_RootOrder
      value: 3
      objectReference: {fileID: 0}
    - target: {fileID: 4000011650569256, guid: 2cf6690298568294cb6b655c0a3aeb87, type: 3}
      propertyPath: m_LocalPosition.x
      value: 3.6159441
      objectReference: {fileID: 0}
    - target: {fileID: 4000011650569256, guid: 2cf6690298568294cb6b655c0a3aeb87, type: 3}
      propertyPath: m_LocalPosition.y
      value: 1.3211435e-17
      objectReference: {fileID: 0}
    - target: {fileID: 4000011650569256, guid: 2cf6690298568294cb6b655c0a3aeb87, type: 3}
      propertyPath: m_LocalPosition.z
      value: -5.9499016
      objectReference: {fileID: 0}
    - target: {fileID: 4000011650569256, guid: 2cf6690298568294cb6b655c0a3aeb87, type: 3}
      propertyPath: m_LocalRotation.w
      value: 1
      objectReference: {fileID: 0}
    - target: {fileID: 4000011650569256, guid: 2cf6690298568294cb6b655c0a3aeb87, type: 3}
      propertyPath: m_LocalRotation.x
      value: -0
      objectReference: {fileID: 0}
    - target: {fileID: 4000011650569256, guid: 2cf6690298568294cb6b655c0a3aeb87, type: 3}
      propertyPath: m_LocalRotation.y
      value: -0
      objectReference: {fileID: 0}
    - target: {fileID: 4000011650569256, guid: 2cf6690298568294cb6b655c0a3aeb87, type: 3}
      propertyPath: m_LocalRotation.z
      value: -0
      objectReference: {fileID: 0}
    m_RemovedComponents: []
  m_SourcePrefab: {fileID: 100100000, guid: 2cf6690298568294cb6b655c0a3aeb87, type: 3}
--- !u!1001 &1767818571
PrefabInstance:
  m_ObjectHideFlags: 0
  serializedVersion: 2
  m_Modification:
    m_TransformParent: {fileID: 2139663128}
    m_Modifications:
    - target: {fileID: 1000011714421220, guid: efebddd0b5766bd499be8b63f581de68, type: 3}
      propertyPath: m_IsActive
      value: 0
      objectReference: {fileID: 0}
    - target: {fileID: 1000014038691284, guid: efebddd0b5766bd499be8b63f581de68, type: 3}
      propertyPath: m_Name
      value: Box_Idle
      objectReference: {fileID: 0}
    - target: {fileID: 4000010043812026, guid: efebddd0b5766bd499be8b63f581de68, type: 3}
      propertyPath: m_RootOrder
      value: 1
      objectReference: {fileID: 0}
    - target: {fileID: 4000010043812026, guid: efebddd0b5766bd499be8b63f581de68, type: 3}
      propertyPath: m_LocalScale.x
      value: 1
      objectReference: {fileID: 0}
    - target: {fileID: 4000010043812026, guid: efebddd0b5766bd499be8b63f581de68, type: 3}
      propertyPath: m_LocalScale.z
      value: 1
      objectReference: {fileID: 0}
    - target: {fileID: 4000010043812026, guid: efebddd0b5766bd499be8b63f581de68, type: 3}
      propertyPath: m_LocalPosition.x
      value: 4.52
      objectReference: {fileID: 0}
    - target: {fileID: 4000010043812026, guid: efebddd0b5766bd499be8b63f581de68, type: 3}
      propertyPath: m_LocalPosition.y
      value: 0
      objectReference: {fileID: 0}
    - target: {fileID: 4000010043812026, guid: efebddd0b5766bd499be8b63f581de68, type: 3}
      propertyPath: m_LocalPosition.z
      value: 0.814442
      objectReference: {fileID: 0}
    - target: {fileID: 4000010043812026, guid: efebddd0b5766bd499be8b63f581de68, type: 3}
      propertyPath: m_LocalRotation.w
      value: 0.9708458
      objectReference: {fileID: 0}
    - target: {fileID: 4000010043812026, guid: efebddd0b5766bd499be8b63f581de68, type: 3}
      propertyPath: m_LocalRotation.x
      value: -0
      objectReference: {fileID: 0}
    - target: {fileID: 4000010043812026, guid: efebddd0b5766bd499be8b63f581de68, type: 3}
      propertyPath: m_LocalRotation.y
      value: 0.23970485
      objectReference: {fileID: 0}
    - target: {fileID: 4000010043812026, guid: efebddd0b5766bd499be8b63f581de68, type: 3}
      propertyPath: m_LocalRotation.z
      value: -0
      objectReference: {fileID: 0}
    - target: {fileID: 95000011159147032, guid: efebddd0b5766bd499be8b63f581de68, type: 3}
      propertyPath: m_Controller
      value: 
      objectReference: {fileID: 9100000, guid: b79f87718dae8f840b98142eef90b118, type: 2}
    m_RemovedComponents: []
  m_SourcePrefab: {fileID: 100100000, guid: efebddd0b5766bd499be8b63f581de68, type: 3}
--- !u!4 &1797391806 stripped
Transform:
  m_CorrespondingSourceObject: {fileID: 4000013828724138, guid: 11e31a2ebb4e6e246bcf8c0ba034a031, type: 3}
  m_PrefabInstance: {fileID: 880991312}
  m_PrefabAsset: {fileID: 0}
--- !u!1 &2139663127
GameObject:
  m_ObjectHideFlags: 0
  m_CorrespondingSourceObject: {fileID: 0}
  m_PrefabInstance: {fileID: 0}
  m_PrefabAsset: {fileID: 0}
  serializedVersion: 6
  m_Component:
  - component: {fileID: 2139663128}
  m_Layer: 0
  m_Name: Scene
  m_TagString: Untagged
  m_Icon: {fileID: 0}
  m_NavMeshLayer: 0
  m_StaticEditorFlags: 0
  m_IsActive: 1
--- !u!4 &2139663128
Transform:
  m_ObjectHideFlags: 0
  m_CorrespondingSourceObject: {fileID: 0}
  m_PrefabInstance: {fileID: 0}
  m_PrefabAsset: {fileID: 0}
  m_GameObject: {fileID: 2139663127}
  m_LocalRotation: {x: 0, y: 0, z: 0, w: 1}
  m_LocalPosition: {x: 0, y: 0, z: 0}
  m_LocalScale: {x: 1, y: 1, z: 1}
  m_Children:
  - {fileID: 1374802510}
  - {fileID: 734735955}
  - {fileID: 1797391806}
  - {fileID: 1080594330}
  - {fileID: 1451734602}
  - {fileID: 1449147176}
  - {fileID: 967171275}
  - {fileID: 588781110}
  - {fileID: 496813424}
  m_Father: {fileID: 0}
  m_RootOrder: 7
  m_LocalEulerAnglesHint: {x: 0, y: 0, z: 0}
