%YAML 1.1
%TAG !u! tag:unity3d.com,2011:
--- !u!65 &7611874984312631682
BoxCollider:
  m_ObjectHideFlags: 0
  m_CorrespondingSourceObject: {fileID: 0}
  m_PrefabInstance: {fileID: 0}
  m_PrefabAsset: {fileID: 0}
  m_GameObject: {fileID: 8105485527883724322}
  m_Material: {fileID: 0}
  m_IsTrigger: 1
  m_Enabled: 1
  serializedVersion: 2
  m_Size: {x: 1.42, y: 1.42, z: 11.560836}
  m_Center: {x: 0, y: 0, z: 5.070419}
--- !u!114 &-6604048754986758203
MonoBehaviour:
  m_ObjectHideFlags: 0
  m_CorrespondingSourceObject: {fileID: 0}
  m_PrefabInstance: {fileID: 0}
  m_PrefabAsset: {fileID: 0}
  m_GameObject: {fileID: 8105485527883724322}
  m_Enabled: 1
  m_EditorHideFlags: 0
  m_Script: {fileID: 11500000, guid: a2623b4cc703e9049abc2a22b3b08246, type: 3}
  m_Name: 
  m_EditorClassIdentifier: 
  type: 1
  isLeftHand: 0
  transformPlayer: {fileID: 0}
--- !u!1001 &8105010306640296274
PrefabInstance:
  m_ObjectHideFlags: 0
  serializedVersion: 2
  m_Modification:
    m_TransformParent: {fileID: 0}
    m_Modifications:
    - target: {fileID: 1899724461870960, guid: 59df0f563f95c764e87867ff8ddcdb83, type: 3}
      propertyPath: m_Name
      value: Projectile_01 Noise Variant
      objectReference: {fileID: 0}
    - target: {fileID: 4285754348467742, guid: 59df0f563f95c764e87867ff8ddcdb83, type: 3}
      propertyPath: m_RootOrder
      value: 0
      objectReference: {fileID: 0}
    - target: {fileID: 4285754348467742, guid: 59df0f563f95c764e87867ff8ddcdb83, type: 3}
      propertyPath: m_LocalPosition.x
      value: 0
      objectReference: {fileID: 0}
    - target: {fileID: 4285754348467742, guid: 59df0f563f95c764e87867ff8ddcdb83, type: 3}
      propertyPath: m_LocalPosition.y
      value: 0
      objectReference: {fileID: 0}
    - target: {fileID: 4285754348467742, guid: 59df0f563f95c764e87867ff8ddcdb83, type: 3}
      propertyPath: m_LocalPosition.z
      value: 0
      objectReference: {fileID: 0}
    - target: {fileID: 4285754348467742, guid: 59df0f563f95c764e87867ff8ddcdb83, type: 3}
      propertyPath: m_LocalRotation.w
      value: 1
      objectReference: {fileID: 0}
    - target: {fileID: 4285754348467742, guid: 59df0f563f95c764e87867ff8ddcdb83, type: 3}
      propertyPath: m_LocalRotation.x
      value: 0
      objectReference: {fileID: 0}
    - target: {fileID: 4285754348467742, guid: 59df0f563f95c764e87867ff8ddcdb83, type: 3}
      propertyPath: m_LocalRotation.y
      value: 0
      objectReference: {fileID: 0}
    - target: {fileID: 4285754348467742, guid: 59df0f563f95c764e87867ff8ddcdb83, type: 3}
      propertyPath: m_LocalRotation.z
      value: 0
      objectReference: {fileID: 0}
    - target: {fileID: 4285754348467742, guid: 59df0f563f95c764e87867ff8ddcdb83, type: 3}
      propertyPath: m_LocalEulerAnglesHint.x
      value: 0
      objectReference: {fileID: 0}
    - target: {fileID: 4285754348467742, guid: 59df0f563f95c764e87867ff8ddcdb83, type: 3}
      propertyPath: m_LocalEulerAnglesHint.y
      value: 0
      objectReference: {fileID: 0}
    - target: {fileID: 4285754348467742, guid: 59df0f563f95c764e87867ff8ddcdb83, type: 3}
      propertyPath: m_LocalEulerAnglesHint.z
      value: 0
      objectReference: {fileID: 0}
    - target: {fileID: 198018591032566760, guid: 59df0f563f95c764e87867ff8ddcdb83, type: 3}
      propertyPath: InitialModule.startColor.maxColor.b
      value: 0.44779548
      objectReference: {fileID: 0}
    - target: {fileID: 198018591032566760, guid: 59df0f563f95c764e87867ff8ddcdb83, type: 3}
      propertyPath: InitialModule.startColor.maxColor.g
      value: 1
      objectReference: {fileID: 0}
    - target: {fileID: 198018591032566760, guid: 59df0f563f95c764e87867ff8ddcdb83, type: 3}
      propertyPath: InitialModule.startColor.maxColor.r
      value: 0.11764706
      objectReference: {fileID: 0}
    - target: {fileID: 198397485540822548, guid: 59df0f563f95c764e87867ff8ddcdb83, type: 3}
      propertyPath: looping
      value: 0
      objectReference: {fileID: 0}
    - target: {fileID: 198784103993327754, guid: 59df0f563f95c764e87867ff8ddcdb83, type: 3}
      propertyPath: looping
      value: 0
      objectReference: {fileID: 0}
    - target: {fileID: 198784103993327754, guid: 59df0f563f95c764e87867ff8ddcdb83, type: 3}
      propertyPath: InitialModule.startColor.maxColor.b
      value: 1
      objectReference: {fileID: 0}
    - target: {fileID: 198784103993327754, guid: 59df0f563f95c764e87867ff8ddcdb83, type: 3}
      propertyPath: InitialModule.startColor.maxColor.g
      value: 1
      objectReference: {fileID: 0}
    - target: {fileID: 198784103993327754, guid: 59df0f563f95c764e87867ff8ddcdb83, type: 3}
      propertyPath: InitialModule.startColor.maxColor.r
      value: 1
      objectReference: {fileID: 0}
    m_RemovedComponents: []
  m_SourcePrefab: {fileID: 100100000, guid: 59df0f563f95c764e87867ff8ddcdb83, type: 3}
--- !u!1 &8105485527883724322 stripped
GameObject:
  m_CorrespondingSourceObject: {fileID: 1899724461870960, guid: 59df0f563f95c764e87867ff8ddcdb83, type: 3}
  m_PrefabInstance: {fileID: 8105010306640296274}
  m_PrefabAsset: {fileID: 0}
